<svg width="41" height="40" viewBox="0 0 41 40" fill="none" xmlns="http://www.w3.org/2000/svg">
<path d="M35.9007 7.93837C35.9007 7.69722 35.7963 7.48057 35.6301 7.33118L33.3745 5.07551L28.5511 0.239837C28.4061 0.0943673 28.2117 0.0102857 28.0073 0.00163265C28.0039 0.00146939 28.0007 0.00130612 27.9973 0.00114286C27.9892 0.000979592 27.9813 0 27.9732 0H5.91691C5.46614 0 5.10059 0.365469 5.10059 0.816326V39.1837C5.10059 39.6345 5.46614 40 5.91691 40H35.0829C35.5337 40 35.8992 39.6345 35.8992 39.1837V7.96988C35.8996 7.95935 35.9007 7.94898 35.9007 7.93837ZM28.7772 2.7871L32.2175 6.22735L33.1099 7.12196H28.7773V2.7871H28.7772ZM6.73324 38.3673V1.63265H27.1446V7.93837C27.1446 8.38922 27.5101 8.75469 27.9609 8.75469H34.2665V38.3673H6.73324Z" fill="#011734"/>
</svg>
