<svg width="20" height="21" viewBox="0 0 20 21" fill="none" xmlns="http://www.w3.org/2000/svg">
<g clip-path="url(#clip0)">
<path d="M19.9804 6.38005C19.9336 5.31738 19.7617 4.5868 19.5156 3.95374C19.2616 3.28176 18.8709 2.68014 18.359 2.18002C17.8589 1.6721 17.2533 1.27743 16.5891 1.02745C15.9524 0.781274 15.2256 0.609427 14.163 0.562573C13.0923 0.511752 12.7525 0.5 10.0371 0.5C7.32172 0.5 6.98185 0.511752 5.9152 0.558605C4.85253 0.605459 4.12195 0.777459 3.48904 1.02348C2.81692 1.27743 2.2153 1.66814 1.71517 2.18002C1.20726 2.68014 0.812742 3.28573 0.562602 3.94992C0.31643 4.5868 0.144583 5.31341 0.0977294 6.37609C0.0469078 7.4467 0.0351562 7.78658 0.0351562 10.502C0.0351562 13.2173 0.0469078 13.5572 0.0937614 14.6239C0.140615 15.6865 0.312615 16.4171 0.558787 17.0502C0.812742 17.7221 1.20726 18.3238 1.71517 18.8239C2.2153 19.3318 2.82088 19.7265 3.48507 19.9765C4.12195 20.2226 4.84856 20.3945 5.91139 20.4413C6.97788 20.4883 7.31791 20.4999 10.0333 20.4999C12.7486 20.4999 13.0885 20.4883 14.1552 20.4413C15.2178 20.3945 15.9484 20.2226 16.5813 19.9765C17.9254 19.4568 18.9881 18.3941 19.5078 17.0502C19.7538 16.4133 19.9258 15.6865 19.9726 14.6239C20.0195 13.5572 20.0312 13.2173 20.0312 10.502C20.0312 7.78658 20.0273 7.4467 19.9804 6.38005ZM18.1794 14.5457C18.1364 15.5225 17.9723 16.0499 17.8355 16.4015C17.4995 17.2728 16.808 17.9643 15.9367 18.3004C15.585 18.4372 15.0538 18.6012 14.0808 18.6441C13.026 18.6911 12.7096 18.7027 10.0411 18.7027C7.37255 18.7027 7.0522 18.6911 6.00113 18.6441C5.02437 18.6012 4.49693 18.4372 4.1453 18.3004C3.71171 18.1402 3.31704 17.8862 2.9967 17.5541C2.6646 17.2298 2.41065 16.8391 2.2504 16.4055C2.11365 16.0539 1.94959 15.5225 1.9067 14.5497C1.8597 13.4948 1.8481 13.1783 1.8481 10.5097C1.8481 7.84122 1.8597 7.52087 1.9067 6.46995C1.94959 5.49319 2.11365 4.96575 2.2504 4.61412C2.41065 4.18038 2.6646 3.78586 3.00067 3.46536C3.32483 3.13327 3.71553 2.87931 4.14927 2.71921C4.5009 2.58247 5.03231 2.4184 6.00509 2.37537C7.05999 2.32851 7.37651 2.31676 10.0449 2.31676C12.7174 2.31676 13.0337 2.32851 14.0848 2.37537C15.0616 2.4184 15.589 2.58247 15.9406 2.71921C16.3742 2.87931 16.7689 3.13327 17.0892 3.46536C17.4213 3.78967 17.6753 4.18038 17.8355 4.61412C17.9723 4.96575 18.1364 5.49701 18.1794 6.46995C18.2262 7.52484 18.238 7.84122 18.238 10.5097C18.238 13.1783 18.2262 13.4908 18.1794 14.5457Z" fill="#011734"/>
<path d="M10.0371 5.36421C7.20074 5.36421 4.89941 7.66538 4.89941 10.5019C4.89941 13.3385 7.20074 15.6397 10.0371 15.6397C12.8737 15.6397 15.1749 13.3385 15.1749 10.5019C15.1749 7.66538 12.8737 5.36421 10.0371 5.36421ZM10.0371 13.8346C8.19702 13.8346 6.70442 12.3422 6.70442 10.5019C6.70442 8.66167 8.19702 7.16922 10.0371 7.16922C11.8774 7.16922 13.3698 8.66167 13.3698 10.5019C13.3698 12.3422 11.8774 13.8346 10.0371 13.8346Z" fill="#011734"/>
<path d="M16.5777 5.16108C16.5777 5.82344 16.0407 6.3605 15.3781 6.3605C14.7158 6.3605 14.1787 5.82344 14.1787 5.16108C14.1787 4.49856 14.7158 3.96165 15.3781 3.96165C16.0407 3.96165 16.5777 4.49856 16.5777 5.16108Z" fill="#011734"/>
</g>
<defs>
<clipPath id="clip0">
<rect width="20" height="20" fill="white" transform="translate(0 0.5)"/>
</clipPath>
</defs>
</svg>
