<svg width="20" height="21" viewBox="0 0 20 21" fill="none" xmlns="http://www.w3.org/2000/svg">
<path d="M19.7525 10.0211L17.6126 8.51242C17.2248 8.2391 16.6889 8.51742 16.6889 8.99133V9.91406H6.41392C6.09032 9.91406 5.82794 10.1764 5.82794 10.5C5.82794 10.8237 6.09032 11.086 6.41392 11.086H16.6888V12.0087C16.6888 12.4857 17.2276 12.7588 17.6124 12.4876L19.7524 10.9789C20.0792 10.7487 20.0858 10.2566 19.7525 10.0211Z" fill="#EEF2F3"/>
<path d="M16.8153 14.2624C16.5352 14.1004 16.1767 14.196 16.0146 14.4762C14.6382 16.8557 12.0653 18.4532 9.12512 18.4532C4.73973 18.4532 1.17191 14.8854 1.17191 10.5C1.17191 6.1146 4.73973 2.54679 9.12512 2.54679C12.0673 2.54679 14.639 4.14574 16.0146 6.52371C16.1766 6.80386 16.5352 6.89945 16.8152 6.73753C17.0954 6.5755 17.1911 6.21703 17.0291 5.93691C15.446 3.20027 12.4894 1.37488 9.12512 1.37488C4.08164 1.37488 0 5.45609 0 10.5C0 15.5435 4.08121 19.6251 9.12512 19.6251C12.4909 19.6251 15.4467 17.7984 17.0291 15.063C17.1911 14.7829 17.0954 14.4244 16.8153 14.2624Z" fill="#EEF2F3"/>
</svg>
