<svg width="15" height="16" viewBox="0 0 15 16" fill="none" xmlns="http://www.w3.org/2000/svg">
<g clip-path="url(#clip0)">
<path d="M14.8436 4.40064C14.8433 4.40033 14.843 4.40002 14.8427 4.39967L14.8421 4.4002L12.6993 2.2574C12.4865 2.05186 12.1474 2.05776 11.9419 2.27058C11.7413 2.47818 11.7413 2.80729 11.9419 3.0149L13.1708 4.24379H10.1783C8.10832 4.24615 6.43082 5.92365 6.42843 7.9937C6.42668 9.47226 5.22851 10.6704 3.74994 10.6722H0.535742C0.239841 10.6722 0 10.912 0 11.2079C0 11.5038 0.239841 11.7436 0.535711 11.7436H3.74991C5.81993 11.7413 7.49744 10.0637 7.49982 7.9937C7.50158 6.51514 8.69975 5.31697 10.1783 5.31521H13.1707L11.9424 6.54358C11.7295 6.74911 11.7236 7.08826 11.9292 7.30105C12.1347 7.51386 12.4739 7.51976 12.6867 7.3142C12.6911 7.3099 12.6955 7.3055 12.6998 7.30105L14.8426 5.15824C15.0521 4.94928 15.0525 4.6101 14.8436 4.40064Z" fill="white"/>
<path d="M14.8437 10.829C14.8433 10.8287 14.843 10.8284 14.8427 10.8281L14.8422 10.8286L12.6994 8.6858C12.4865 8.48027 12.1474 8.48617 11.9419 8.69899C11.7414 8.90659 11.7414 9.2357 11.9419 9.44327L13.1708 10.6722H10.1784C9.51934 10.6726 8.88334 10.4298 8.39236 9.99022C8.1701 9.79492 7.83163 9.8168 7.63633 10.039C7.44361 10.2584 7.46203 10.5916 7.67773 10.7884C8.36508 11.4041 9.25561 11.7442 10.1784 11.7436H13.1708L11.9424 12.9719C11.7296 13.1775 11.7237 13.5166 11.9292 13.7294C12.1348 13.9422 12.4739 13.9481 12.6867 13.7426C12.6912 13.7383 12.6956 13.7339 12.6999 13.7294L14.8427 11.5866C15.0522 11.3777 15.0526 11.0385 14.8437 10.829Z" fill="white"/>
<path d="M6.25054 5.19893C5.5632 4.58327 4.67267 4.24312 3.74991 4.24378H0.53571C0.239841 4.24378 0 4.48362 0 4.77949C0 5.07535 0.239841 5.31519 0.53571 5.31519H3.74991C4.40894 5.31472 5.04494 5.55755 5.53592 5.99714C5.75818 6.19244 6.09665 6.17057 6.29195 5.94833C6.48467 5.72896 6.46625 5.39571 6.25054 5.19893Z" fill="white"/>
</g>
<defs>
<clipPath id="clip0">
<rect width="15" height="15" fill="white" transform="translate(0 0.5)"/>
</clipPath>
</defs>
</svg>
