<svg width="20" height="20" viewBox="0 0 20 20" fill="none" xmlns="http://www.w3.org/2000/svg">
<path d="M11.5625 17.6562C11.3469 17.6562 11.1719 17.8312 11.1719 18.0469C11.1719 18.2625 11.3469 18.4375 11.5625 18.4375C11.7781 18.4375 11.9531 18.2625 11.9531 18.0469C11.9531 17.8312 11.7781 17.6562 11.5625 17.6562Z" fill="white"/>
<path d="M17.0312 1.79688H15.8594V1.17188C15.8594 0.525703 15.3337 0 14.6875 0H5.3125C4.66633 0 4.14062 0.525703 4.14062 1.17188V1.79688H2.96875C2.32258 1.79688 1.79688 2.32258 1.79688 2.96875C1.79688 5.51004 2.98602 7.37762 4.91516 7.89758C5.57648 9.35324 6.62211 10.5907 7.9493 11.4849C8.255 11.6909 8.4375 12.0435 8.4375 12.4281V14.5804C8.16973 14.6491 7.92406 14.7883 7.7234 14.989C7.4282 15.2843 7.26562 15.6766 7.26562 16.0938H6.875C6.22883 16.0938 5.70312 16.6195 5.70312 17.2656V19.6094C5.70312 19.8251 5.87805 20 6.09375 20H13.9062C14.122 20 14.2969 19.8251 14.2969 19.6094V17.2656C14.2969 16.6195 13.7712 16.0938 13.125 16.0938H12.7344C12.7344 15.367 12.2357 14.7546 11.5625 14.5807V12.4301C11.5625 12.0442 11.7451 11.6909 12.0511 11.4849C13.3784 10.5907 14.424 9.35316 15.0853 7.89746C17.0142 7.37731 18.2031 5.50984 18.2031 2.96875C18.2031 2.32258 17.6774 1.79688 17.0312 1.79688ZM2.57812 2.96875C2.57812 2.75336 2.75336 2.57812 2.96875 2.57812H4.14062V4.32422C4.14062 5.21465 4.27551 6.0866 4.5418 6.92633C3.29871 6.31059 2.57812 4.88852 2.57812 2.96875ZM13.125 16.875C13.3404 16.875 13.5156 17.0502 13.5156 17.2656V19.2188H6.48438V17.2656C6.48438 17.0502 6.65961 16.875 6.875 16.875H13.125ZM15.0781 4.32422C15.0781 5.39125 14.8657 6.42953 14.4466 7.41016C13.8505 8.80535 12.8713 9.99031 11.6147 10.8369C11.0928 11.1882 10.7812 11.7838 10.7812 12.4301V14.9219C10.7812 15.1376 10.9562 15.3125 11.1719 15.3125C11.6027 15.3125 11.9531 15.663 11.9531 16.0938H8.04688C8.04688 15.8852 8.1282 15.6891 8.27582 15.5414C8.41621 15.4011 8.60047 15.3207 8.7975 15.3131C8.80762 15.3139 8.81781 15.3143 8.82809 15.3143C9.04379 15.3143 9.21871 15.1376 9.21871 14.9219V12.4281C9.21871 11.7832 8.90734 11.1884 8.38582 10.837C7.12914 9.99035 6.14984 8.80539 5.55367 7.41008C5.13445 6.4298 4.92188 5.39156 4.92188 4.32422V1.17188C4.92188 0.956484 5.09711 0.78125 5.3125 0.78125H14.6875C14.9029 0.78125 15.0781 0.956484 15.0781 1.17188V4.32422ZM15.4584 6.92625C15.7245 6.08633 15.8594 5.21441 15.8594 4.32422V2.57812H17.0312C17.2466 2.57812 17.4219 2.75336 17.4219 2.96875C17.4219 4.8884 16.7014 6.31043 15.4584 6.92625Z" fill="white"/>
<path d="M13.0914 4.61562C13.0455 4.47418 12.9232 4.37109 12.776 4.34977L11.0903 4.10508L10.3362 2.57715C10.2704 2.44379 10.1346 2.35938 9.98592 2.35938C9.83721 2.35938 9.70143 2.44379 9.63561 2.57715L8.88158 4.10508L7.19584 4.34977C7.04865 4.37113 6.92643 4.47422 6.88045 4.61562C6.83451 4.75707 6.87283 4.9123 6.97932 5.01609L8.1994 6.20516L7.91143 7.88434C7.88631 8.0309 7.94655 8.17898 8.06686 8.26641C8.18717 8.35379 8.34666 8.36531 8.47822 8.29613L9.98596 7.50344L11.494 8.29613C11.6265 8.36574 11.7859 8.35324 11.9054 8.26637C12.0257 8.17894 12.0859 8.03082 12.0608 7.88426L11.7725 6.20512L12.9925 5.01609C13.099 4.9123 13.1373 4.75707 13.0914 4.61562ZM11.0801 5.78898C10.988 5.87875 10.946 6.00809 10.9678 6.13484L11.1569 7.23629L10.1677 6.71633C10.0538 6.65652 9.91787 6.65652 9.80416 6.71637L8.8153 7.23629L9.0042 6.13477C9.02592 6.00801 8.98389 5.87871 8.89182 5.78898L8.09166 5.00914L9.19717 4.84867C9.32444 4.83019 9.43444 4.75027 9.49135 4.63496L9.98596 3.63266L10.4806 4.63496C10.5375 4.75027 10.6475 4.83019 10.7747 4.84867L11.8803 5.00914L11.0801 5.78898Z" fill="white"/>
<path d="M10 17.6562H8.4375C8.2218 17.6562 8.04688 17.8311 8.04688 18.0469C8.04688 18.2626 8.2218 18.4375 8.4375 18.4375H10C10.2157 18.4375 10.3906 18.2626 10.3906 18.0469C10.3906 17.8311 10.2157 17.6562 10 17.6562Z" fill="white"/>
<path d="M16.016 18.8281H16.2338C16.1228 18.8061 16.0482 18.8039 16.016 18.8281Z" fill="white"/>
</svg>
